{
  "code": 200,
  "meta": {
    "pagination": {
      "total": 1427,
      "pages": 72,
      "page": 1,
      "limit": 20
    }
  },
  "data": [
    {
      "id": 34,
      "user_id": 37,
      "title": "Corporis termes surgo tantillus causa damnatio curvus verbum.",
      "body": "Causa deserunt vacuus. Terreo molestiae sto. Apud defero villa. Paulatim deputo socius. Triginta ulterius consequatur. Comminor rem desparatus. Bis viduo benevolentia. Aegrotatio studio accipio. Ut cuius eos. Bellicus aestus admiratio. Vesica tenus architecto. Spectaculum corona uter. Cohaero atrox adduco. Omnis nostrum volva. Uberrime debitis atrocitas. Ara abstergo optio. Ancilla caste aeger.",
      "created_at": "2020-08-27T03:50:04.483+05:30",
      "updated_at": "2020-08-27T03:50:04.483+05:30"
    },
    {
      "id": 35,
      "user_id": 38,
      "title": "Virtus tyrannus corporis doloribus amet aro.",
      "body": "Temptatio omnis ante. Ubi ut omnis. Error arguo surgo. Teneo ultio caste. Amo calcar tyrannus. Auctus accipio uter. Conqueror suus articulus. Theca illum aeger. Crudelis defaeco verus. Debilito avoco sustineo. Depopulo baiulus decet. Abduco vix soluta. Amicitia tum nesciunt. Nobis claudeo appositus. Clarus vorago theatrum. Talis voluptatem suscipit. Ars adficio non.",
      "created_at": "2020-08-27T03:50:04.512+05:30",
      "updated_at": "2020-08-27T03:50:04.512+05:30"
    },
    {
      "id": 36,
      "user_id": 38,
      "title": "Tenuis aliquam timor collum virga curtus vaco benigne animi speciosus vilis corrigo.",
      "body": "Eos adamo ancilla. Urbs crux defaeco. Sui apud canonicus. Considero vos assumenda. Vestigium quo caelestis. Vulgaris coerceo blandior. Crudelis id aureus. Ars sub adaugeo. Ter valde adamo. Pariatur suscipio cum. Adaugeo campana deludo. Volaticus coerceo itaque. Charisma veniam terebro. Deripio pax aliquid. Ter contra vel. Cupiditas rerum conicio. Arto aggredior caste. Ambitus creator coadunatio. Aequus pecco laboriosam.",
      "created_at": "2020-08-27T03:50:04.526+05:30",
      "updated_at": "2020-08-27T03:50:04.526+05:30"
    },
    {
      "id": 39,
      "user_id": 42,
      "title": "Uter totus abstergo valeo vallum ubi currus cerno sint.",
      "body": "Terror hic quisquam. Abscido qui audentia. Aptus et nulla. Consequatur deleo iste. Turba accommodo iure. Dicta caelum tergo. Rerum vinco aranea. Sophismata decet arceo. Repellat natus cras. Ter ad adduco. Asporto consequatur comptus. Creo laudantium non. Tepesco turba defigo. Artificiose adhaero adipiscor. Vilicus careo vulgaris. Depulso tantum volup. Soleo cinis stultus. Ago apud pecus. Ocer audacia arguo. Accendo succedo vacuus. Ter unde surgo. Amoveo cursus cetera. Ago delectus aggredior. Suppellex summisse reiciendis. Demens dolor admoneo. Claudeo depromo substantia. Adfero clam corrumpo. Bos cena velit.",
      "created_at": "2020-08-27T03:50:04.626+05:30",
      "updated_at": "2020-08-27T03:50:04.626+05:30"
    },
    {
      "id": 40,
      "user_id": 42,
      "title": "Dedico demens atrox theca bis auditor totam doloribus demum traho ventito aut succurro comptus eius vir verbera utroque.",
      "body": "Conitor textor uberrime. Quae taceo tum. Est usitas thermae. Vero turbo coruscus. Ter delinquo curatio. Sed contigo alii. Amor veritatis veritas. Altus varius aut. Dolore vester cruciamentum. Deprecator consequuntur quis. Temptatio dolores modi. Tumultus thesaurus molestiae. Censura creta uterque. Vox truculenter congregatio. Viduo aeger sollicito. Celebrer amo adversus. Creator thesaurus sono. Cui curvo ventosus. Sopor paens fugit. Tolero incidunt coadunatio. Cimentarius crapula artificiose. Turbo celo cubo. Atrocitas alter ea.",
      "created_at": "2020-08-27T03:50:04.642+05:30",
      "updated_at": "2020-08-27T03:50:04.642+05:30"
    },
    {
      "id": 41,
      "user_id": 43,
      "title": "Appositus alveus accusantium admitto tum taedium quia tamisium cado et centum celebrer speculum caritas delectus.",
      "body": "Timidus communis in. Inventore dicta vestrum. Utroque dignissimos vero. Canto cohibeo tum. Decipio rerum suadeo. Demergo suffragium stillicidium. Culpo sto ea. Tutis conspergo viduata. Adhaero cicuta sumptus. Perspiciatis surculus et. Sunt vorax quibusdam. Ullus uter succurro. Aut cimentarius officia. Color labore venia. Sto creber viduo. Cervus aureus spargo.",
      "created_at": "2020-08-27T03:50:04.664+05:30",
      "updated_at": "2020-08-27T03:50:04.664+05:30"
    },
    {
      "id": 42,
      "user_id": 43,
      "title": "Vel trans defessus vinco infit tempus adflicto tenax claustrum cupressus despirmatio uter totidem decipio despecto aegrus clam comparo defaeco.",
      "body": "Quam conitor tracto. Cetera unde eos. Quia capio tepidus. Defetiscor aveho volva. Talis alienus cohibeo. Creo nihil damno. Ver vestigium bis. Barba civis certo. Cerno amplexus illo. Suggero catena strues. Cultellus quaerat velit. Sub absens aliquam. Tabula una terra. Defetiscor copia desparatus. Angelus aliquid vacuus. Degenero autem amplitudo. Arcus copia vehemens. Esse magni turba. Tabesco sollers tricesimus. Vulticulus pecunia eaque. Umbra degero sumptus. Unde adsum vita. Molestiae natus aut. Decerno ipsum adnuo. Argumentum solvo adduco.",
      "created_at": "2020-08-27T03:50:04.673+05:30",
      "updated_at": "2020-08-27T03:50:04.673+05:30"
    },
    {
      "id": 43,
      "user_id": 46,
      "title": "Enim et carbo conor blandior tonsor cognatus admiratio repudiandae dapifer tero.",
      "body": "Valetudo alter dolores. Adsum qui voluptatem. Curso amo cultellus. Adhuc deputo aperiam. Voluptatem crustulum texo. Desidero cupiditate advoco. Repellendus damnatio accusator. Sufficio inventore ver. Viriliter quia sumptus. Doloremque consectetur consuasor. Sapiente voluptatem maxime. Tantillus creta crebro. Tot itaque videlicet. Tersus eligendi accusamus. Defetiscor tantillus vicissitudo. Audio vitium curto. Amissio accommodo cupiditate. Spiritus suus acsi. Arbitro bestia contabesco. Annus dedecor qui. Concedo vereor culpa. Iure maxime cunctatio. Non abundans defessus. Patior aptus nesciunt. Cunabula suppono damno. Repellat aperio cupio. Vapulus conscendo abeo. Beneficium vorago templum.",
      "created_at": "2020-08-27T03:50:04.715+05:30",
      "updated_at": "2020-08-27T03:50:04.715+05:30"
    },
    {
      "id": 44,
      "user_id": 48,
      "title": "Nulla caelum tres cogito et attollo defero similique harum.",
      "body": "Maiores est autus. Campana libero uter. Atrox calco aequus. Vix talus universe. Civis aegre conor. Cum vultuosus cibus. Accedo acervus omnis. Adulatio demitto tamquam. Alter voluptatem volva. Acervus conscendo sulum. Usque avaritia certe. Contra laborum defungo. Qui molestiae caecus. Quis sint creator. Spectaculum verumtamen modi. Contabesco suus pax. Contra tabgo caterva. Curvus vacuus cernuus. Allatus arguo cedo. Ea terebro aggero. Ancilla enim sollers. Et ademptio eligendi. Tollo vindico talis. Colligo deserunt harum. Crux tergum aveho. Credo decor non. Comes votum aegrotatio. Turpis armo stipes. Congregatio cornu vere.",
      "created_at": "2020-08-27T03:50:04.758+05:30",
      "updated_at": "2020-08-27T03:50:04.758+05:30"
    },
    {
      "id": 45,
      "user_id": 51,
      "title": "Atrox colo arcesso id arcus tricesimus accommodo conscendo officia surculus aranea vae quas.",
      "body": "Verus audeo conscendo. Aequitas rem aperio. Culpa teres et. Et socius corona. Vigor voluptatum suppellex. Teres articulus consuasor. Quo cultellus velit. Defetiscor omnis cauda. Damno mollitia virgo. Triumphus trans utor. Vel valde comes. Modi quo verumtamen. Celebrer cariosus complectus. Viduata ars utrum. Qui turbo velit. Et adeptio admoneo.",
      "created_at": "2020-08-27T03:50:04.800+05:30",
      "updated_at": "2020-08-27T03:50:04.800+05:30"
    },
    {
      "id": 46,
      "user_id": 54,
      "title": "Exercitationem acceptus tametsi magnam tubineus bos fugiat usitas expedita dolorum coadunatio defendo suggero quo coniecto atavus.",
      "body": "In iusto undique. Et dolorem celo. Statua tyrannus viridis. Ventus tamquam dedico. Sordeo asperiores attero. Villa rerum carbo. Coadunatio defungo denuo. Repellendus ut chirographum. Auctor pecus deorsum. Confido decens vigilo. Repudiandae amor et. Autem summisse animi. Vigilo arbitro ut. Spes assumenda cauda. Ademptio vetus rerum. Apostolus tamen aedificium. Curo anser avaritia. Arca impedit vos. Voluptatem cornu suscipit. Creta a tergiversatio. Quod dolores caveo. Adinventitias spoliatio subseco.",
      "created_at": "2020-08-27T03:50:04.850+05:30",
      "updated_at": "2020-08-27T03:50:04.850+05:30"
    },
    {
      "id": 47,
      "user_id": 56,
      "title": "Unde argumentum cattus qui sperno est denuo sequi paens caries omnis.",
      "body": "Quia amet chirographum. Ambulo adsidue bellicus. Est non vomito. Reiciendis corroboro denego. Audax veritas aveho. Compono comprehendo tricesimus. Benevolentia vobis autem. Curso tenetur est. Ventito accendo odit. Angustus vespillo laborum. Solus minus alveus. Unus nostrum vox. Spiritus sumptus iste. Adipisci distinctio vorax. Subnecto accendo coniuratio. Facere ut cerno. Et demo vero. Carcer cohibeo vomito. Est spargo turba. Dolorem aveho viriliter. Appello fuga consuasor. Xiphias aureus hic. Nihil cura ultra. Consuasor voluptatum pecto. Quibusdam solio patrocinor. Peccatus supplanto avarus. Vos acquiro adstringo. Corpus viduo videlicet.",
      "created_at": "2020-08-27T03:50:04.880+05:30",
      "updated_at": "2020-08-27T03:50:04.880+05:30"
    },
    {
      "id": 48,
      "user_id": 57,
      "title": "Astrum culpa viduata non toties ocer uxor calculus admiratio victus spes voluptatem.",
      "body": "Nostrum adsidue paulatim. Caelum credo capio. Desparatus voluntarius celer. Suasoria tertius veritas. Ambulo cupio color. Barba decens cogo. Consuasor tutamen universe. Contabesco concido bellum. Decipio sustineo uredo. Tergum sed cubo. Umquam inventore carus. Voluptatem abeo cornu. Viduo assumenda vultuosus. Aestivus tantum annus. Ullus vulgo allatus. Amet admoneo perferendis. Quia demonstro apud. Et titulus armo. Canonicus crinis delibero.",
      "created_at": "2020-08-27T03:50:04.895+05:30",
      "updated_at": "2020-08-27T03:50:04.895+05:30"
    },
    {
      "id": 49,
      "user_id": 61,
      "title": "Acer cognomen pecco tempora tyrannus angustus vitae qui correptius comes tumultus tutis solus cariosus vinitor caelum.",
      "body": "Vacuus copiose vulnus. Timor audax casus. Sapiente decumbo adaugeo. Tertius suppono veritatis. Quisquam laborum deputo. Vesco apparatus agnosco. Argentum constans aurum. Degero turpis adstringo. Vulgus velit aedificium. Delego deprimo excepturi. Adeptio vinitor tamen. Apostolus corrumpo a. Celer curvus amitto. Solus terminatio et. Antiquus vorax consequatur. Advoco ventosus suspendo. Blanditiis stipes acidus. Amet sperno nobis. Adopto commodi ater. Atavus absorbeo terror. Aggero paens sum. Careo cerno voro. Volutabrum candidus repellendus. Adulatio tego vesper.",
      "created_at": "2020-08-27T03:50:04.958+05:30",
      "updated_at": "2020-08-27T03:50:04.958+05:30"
    },
    {
      "id": 50,
      "user_id": 63,
      "title": "Nostrum bos tener cimentarius censura tremo pax triduana abundans dolor caelestis eaque suppellex nisi.",
      "body": "Vado crustulum totidem. Audentia cariosus cuppedia. Suasoria sono tremo. Torqueo et addo. Defleo strues depraedor. Coaegresco voluntarius coadunatio. Spiculum spes aegrus. Cur auctus cito. Contigo peccatus argentum. Magnam coerceo autem. Voluptatem volva cilicium. Accedo voluptatem tabesco. Sit cognomen debilito. Defungo curia terebro. Sub trans attonbitus. Absum auctor aestivus. Eos repudiandae compono. Facere substantia minus. Tabula decimus stillicidium. Vomica sed carmen. In terebro summisse. Sit aequitas triduana. Sonitus defleo vobis. Auxilium cupressus advoco. Depopulo modi votum.",
      "created_at": "2020-08-27T03:50:04.993+05:30",
      "updated_at": "2020-08-27T03:50:04.993+05:30"
    },
    {
      "id": 51,
      "user_id": 63,
      "title": "Ipsum combibo aequus defaeco verto ascisco vivo tepesco cultellus sui cupressus acquiro adeo speciosus eveniet voluntarius adipiscor tracto.",
      "body": "Cicuta peior qui. Odit libero maiores. Supellex nulla vigilo. Defleo somniculosus cornu. Callide recusandae et. Vaco utroque antepono. Suppellex depono sint. Comes defetiscor rerum. Veniam carcer statua. Adipiscor molestiae vinco. Umquam beatae barba. Officia audio id. Qui adsum ante. Sapiente unde absens. Blandior sed crapula. Vacuus architecto tergum. Sumo thesaurus arceo. Cura auctus iste. Maiores conicio tutamen. Creator vinco cohaero. Sto ipsa debeo. Incidunt admoveo acquiro. Ante alo quos. Dignissimos amplus tabella. Tabula exercitationem deprecator. Correptius valde abeo. Vilicus articulus voluptatum. Utilis ancilla adicio. Beneficium condico ara.",
      "created_at": "2020-08-27T03:50:05.002+05:30",
      "updated_at": "2020-08-27T03:50:05.002+05:30"
    },
    {
      "id": 52,
      "user_id": 64,
      "title": "Voluptates et autem sub sulum et virga desipio viriliter curatio.",
      "body": "Ait usitas coma. Terminatio voveo deserunt. Texo subnecto thesaurus. Strenuus aptus caecus. Creber eos trado. Natus auxilium demoror. Cenaculum arbitro cohibeo. Aut ciminatio bis. Ultio uberrime modi. Decor ullam clarus. Quia arca voco. Coruscus quo vado. Benigne templum demergo. Aegre vox error. Aspernatur architecto compono. Apostolus delicate desolo. Cattus ea dolorem. Attero thalassinus clibanus. Adaugeo adimpleo debeo. Vitiosus conscendo amplexus. Torqueo conspergo appello. Iste aequus tabula.",
      "created_at": "2020-08-27T03:50:05.018+05:30",
      "updated_at": "2020-08-27T03:50:05.018+05:30"
    },
    {
      "id": 53,
      "user_id": 64,
      "title": "Caterva spiritus annus curriculum vomica calamitas spargo tricesimus vita summa caelum tollo demitto.",
      "body": "Et antiquus velit. Aranea vallum appositus. Conqueror adinventitias cultura. Aranea solium sortitus. Aegrotatio defluo stips. Nisi textus aperte. Vulticulus tollo nesciunt. Temporibus bestia explicabo. Decipio coadunatio at. Facere patrocinor contra. Bellicus abbas bardus. Coma arma accipio. Versus acervus admiratio. Maxime asper uxor. Denego autus ciminatio. Culpo dolorem qui.",
      "created_at": "2020-08-27T03:50:05.039+05:30",
      "updated_at": "2020-08-27T03:50:05.039+05:30"
    },
    {
      "id": 54,
      "user_id": 65,
      "title": "Dolor unde vulticulus vociferor claudeo pel contabesco tutamen ancilla mollitia.",
      "body": "Arguo patrocinor pecto. Vere astrum volaticus. Crur crux xiphias. Tribuo despirmatio suffragium. Voluptatum circumvenio texo. Abutor ab repellat. Torqueo culpa delectatio. Sui vel coniecto. Toties comparo demum. Carcer suffoco autus. Et aut valde. Armarium trucido cunae. Villa vaco testimonium. Vociferor clam mollitia. Unde ascit celebrer. Tantum terga conscendo. Natus cariosus uredo.",
      "created_at": "2020-08-27T03:50:05.067+05:30",
      "updated_at": "2020-08-27T03:50:05.067+05:30"
    },
    {
      "id": 55,
      "user_id": 66,
      "title": "Celebrer certo adulescens cenaculum dapifer clementia vomer bos candidus autem illo tyrannus sit.",
      "body": "Armarium degenero adficio. Debilito uberrime volubilis. Suppellex defetiscor tergo. Cornu minima speculum. Quas quidem tergum. Quas cena adamo. Summopere nisi strues. Appello colligo ademptio. Absens totam tempora. Patria possimus consuasor. Triginta aut vinculum. Uxor arbitro aestivus. Incidunt verto sto. Et concedo vulnus. Quos absum copia. Civis curis accedo.",
      "created_at": "2020-08-27T03:50:05.083+05:30",
      "updated_at": "2020-08-27T03:50:05.083+05:30"
    }
  ]
}