{
  "code": 200,
  "meta": {
    "pagination": {
      "total": 1843,
      "pages": 93,
      "page": 1,
      "limit": 20
    }
  },
  "data": [
    {
      "id": 46,
      "name": "Anandamayi1 Bhattathiri",
      "email": "anandamayi_bhattathiri@west-kuvalis.net",
      "gender": "Female",
      "status": "Active",
      "created_at": "2020-09-03T03:50:04.679+05:30",
      "updated_at": "2020-09-03T17:10:49.828+05:30"
    },
    {
      "id": 47,
      "name": "Dwaipayan Nehru",
      "email": "dwaipayan_nehru@kshlerin.co",
      "gender": "Male",
      "status": "Active",
      "created_at": "2020-09-03T03:50:04.703+05:30",
      "updated_at": "2020-09-03T03:50:04.703+05:30"
    },
    {
      "id": 48,
      "name": "Devani Ahluwalia",
      "email": "ahluwalia_devani@wehner-jaskolski.info",
      "gender": "Male",
      "status": "Inactive",
      "created_at": "2020-09-03T03:50:04.730+05:30",
      "updated_at": "2020-09-03T03:50:04.730+05:30"
    },
    {
      "id": 49,
      "name": "Prof. Sarada",
      "email": "prof_sarada_pilla@zboncak.co",
      "gender": "Female",
      "status": "Active",
      "created_at": "2020-09-03T03:50:04.748+05:30",
      "updated_at": "2020-09-03T16:31:34.808+05:30"
    },
    {
      "id": 50,
      "name": "Msgr. Bhudev Panicker",
      "email": "msgr_bhudev_panicker@goyette.biz",
      "gender": "Male",
      "status": "Active",
      "created_at": "2020-09-03T03:50:04.752+05:30",
      "updated_at": "2020-09-03T03:50:04.752+05:30"
    },
    {
      "id": 51,
      "name": "Bharat Mukhopadhyay",
      "email": "mukhopadhyay_bharat@stokes.net",
      "gender": "Male",
      "status": "Inactive",
      "created_at": "2020-09-03T03:50:04.781+05:30",
      "updated_at": "2020-09-03T03:50:04.781+05:30"
    },
    {
      "id": 53,
      "name": "Swara Bhat",
      "email": "swara_bhat@rogahn.io",
      "gender": "Male",
      "status": "Active",
      "created_at": "2020-09-03T03:50:04.815+05:30",
      "updated_at": "2020-09-03T03:50:04.815+05:30"
    },
    {
      "id": 60,
      "name": "Brahma Dhawan",
      "email": "dhawan_brahma@marquardt-beer.org",
      "gender": "Female",
      "status": "Active",
      "created_at": "2020-09-03T03:50:04.919+05:30",
      "updated_at": "2020-09-03T03:50:04.919+05:30"
    },
    {
      "id": 61,
      "name": "Ghanshyam Gowda",
      "email": "ghanshyam_gowda@sawayn.com",
      "gender": "Female",
      "status": "Inactive",
      "created_at": "2020-09-03T03:50:04.925+05:30",
      "updated_at": "2020-09-03T03:50:04.925+05:30"
    },
    {
      "id": 62,
      "name": "Rev. Sarla Talwar",
      "email": "talwar_sarla_rev@volkman.name",
      "gender": "Male",
      "status": "Inactive",
      "created_at": "2020-09-03T03:50:04.931+05:30",
      "updated_at": "2020-09-03T03:50:04.931+05:30"
    },
    {
      "id": 63,
      "name": "Bhasvan Trivedi MD",
      "email": "md_trivedi_bhasvan@gorczany-kohler.io",
      "gender": "Female",
      "status": "Active",
      "created_at": "2020-09-03T03:50:04.939+05:30",
      "updated_at": "2020-09-03T03:50:04.939+05:30"
    },
    {
      "id": 64,
      "name": "Chaturbhuj Naik",
      "email": "chaturbhuj_naik@koepp.io",
      "gender": "Female",
      "status": "Inactive",
      "created_at": "2020-09-03T03:50:04.951+05:30",
      "updated_at": "2020-09-03T03:50:04.951+05:30"
    },
    {
      "id": 65,
      "name": "Daevika Gandhi Ret.",
      "email": "daevika_gandhi_ret@schmitt-hauck.io",
      "gender": "Male",
      "status": "Inactive",
      "created_at": "2020-09-03T03:50:04.963+05:30",
      "updated_at": "2020-09-03T03:50:04.963+05:30"
    },
    {
      "id": 66,
      "name": "Shobhana Bhat",
      "email": "bhat_shobhana@reilly-abernathy.co",
      "gender": "Male",
      "status": "Inactive",
      "created_at": "2020-09-03T03:50:04.985+05:30",
      "updated_at": "2020-09-03T03:50:04.985+05:30"
    },
    {
      "id": 67,
      "name": "Miss Deeptiman Dhawan",
      "email": "dhawan_deeptiman_miss@howe-mccullough.org",
      "gender": "Male",
      "status": "Active",
      "created_at": "2020-09-03T03:50:05.018+05:30",
      "updated_at": "2020-09-03T03:50:05.018+05:30"
    },
    {
      "id": 68,
      "name": "Bhadrak Kaniyar",
      "email": "bhadrak_kaniyar@senger.name",
      "gender": "Male",
      "status": "Active",
      "created_at": "2020-09-03T03:50:05.026+05:30",
      "updated_at": "2020-09-03T03:50:05.026+05:30"
    },
    {
      "id": 69,
      "name": "Rohan Namboothiri",
      "email": "namboothiri_rohan@turner.io",
      "gender": "Male",
      "status": "Inactive",
      "created_at": "2020-09-03T03:50:05.029+05:30",
      "updated_at": "2020-09-03T03:50:05.029+05:30"
    },
    {
      "id": 70,
      "name": "Ameyatma Kaur",
      "email": "ameyatma_kaur@schoen.co",
      "gender": "Female",
      "status": "Active",
      "created_at": "2020-09-03T03:50:05.046+05:30",
      "updated_at": "2020-09-03T03:50:05.046+05:30"
    },
    {
      "id": 71,
      "name": "Pran Mehrotra",
      "email": "pran_mehrotra@sawayn.net",
      "gender": "Female",
      "status": "Active",
      "created_at": "2020-09-03T03:50:05.054+05:30",
      "updated_at": "2020-09-03T03:50:05.054+05:30"
    },
    {
      "id": 72,
      "name": "Chandran Johar",
      "email": "johar_chandran@shields-kshlerin.net",
      "gender": "Male",
      "status": "Active",
      "created_at": "2020-09-03T03:50:05.070+05:30",
      "updated_at": "2020-09-03T03:50:05.070+05:30"
    }
  ]
}
